…
```r
interval_steps %>% arrange(desc(mean_steps))
```

```
## # A tibble: 288 × 2
##    interval mean_steps
##       <dbl>      <dbl>
##  1      835       206.
##  2      840       196.
##  3      850       183.
##  4      845       180.
##  5      830       177.
##  6      820       171.
##  7      855       167.
##  8      815       158.
##  9      825       155.
## 10      900       143.
## # … with 278 more rows
## # ℹ Use `print(n = ...)` to see more rows
```
…
